8.1 Explicación | Notas de clase del curso de introducción a Data Science
…
8.1.2.3 Evaluando los modelos aleatorios

Ahora podemos calcular el ECM para todos los modelos del dataframe models. Para eso utilizamos el paquete purrr, para ejecutar varias veces la misma función sobre varios elementos.

Tenemos que pasar los valores de a1 y a2 (dos parámetros –> map2), pero como nuestra función toma sólo uno (el vector a), nos armamos una función de ayuda para wrapear a1 y a2

sim1_dist <- function(a1, a2) {
  measure_distance(c(a1, a2), sim1)
}

models <- models %>% 
  mutate(dist = purrr::map2_dbl(a1, a2, sim1_dist))
models

## # A tibble: 250 x 3
##        a1     a2  dist
##     <dbl>  <dbl> <dbl>
##  1 -14.0   4.46   8.75
##  2   5.28 -1.89  23.6 
##  3  19.5   0.991 10.1 
##  4  -2.28  3.90   6.80
##  5  -7.64  1.07  17.6 
##  6 -19.9  -0.594 39.4 
##  7 -13.5   0.601 26.2 
##  8  -7.11  4.39   7.23
##  9 -13.1   3.35  11.1 
## 10  21.2  -2.13  13.6 
## # … with 240 more rows
…
