7.2 Práctica Guiada | Notas de clase del curso de introducción a Data Science
…
## # A tibble: 2 x 2
##   bases_individuales_path            base                 
##   <fs::path>                         <list>               
## 1 ../fuentes/usu_individual_t119.txt <df[,6] [59,369 × 6]>
## 2 ../fuentes/usu_individual_t418.txt <df[,6] [57,418 × 6]>

El resultado es un DF donde la columna base tiene en cada fila, otro DF con la base de la EPH de ese período. Esto es lo que llamamos un nested DF o dataframe nesteado pa les pibes.

Si queremos juntar todo, podemos usar unnest()

bases_df <- bases_df %>% unnest()
bases_df

## # A tibble: 116,787 x 7
##    bases_individuales_path             ANO4 TRIMESTRE REGION   P21  CH04
##    <fs::path>                         <int>     <int>  <int> <int> <int>
##  1 ../fuentes/usu_individual_t119.txt  2019         1     41     0     2
##  2 ../fuentes/usu_individual_t119.txt  2019         1     41     0     2
##  3 ../fuentes/usu_individual_t119.txt  2019         1     41     0     1
##  4 ../fuentes/usu_individual_t119.txt  2019         1     41  5000     2
##  5 ../fuentes/usu_individual_t119.txt  2019         1     41     0     2
##  6 ../fuentes/usu_individual_t119.txt  2019         1     41  8000     1
##  7 ../fuentes/usu_individual_t119.txt  2019         1     41     0     1
##  8 ../fuentes/usu_individual_t119.txt  2019         1     41     0     2
##  9 ../fuentes/usu_individual_t119.txt  2019         1     41     0     2
## 10 ../fuentes/usu_individual_t119.txt  2019         1     41  3000     1
## # … with 116,777 more rows, and 1 more variable: CH06 <int>
…
